10111111101010101011110110111111
00000000000000000000000000110111
00000000000000000000000000010111
00000000000000000000000001101111
00000000000000000000000001100111
00000000000000000000000001100011
00000000000000000001000001100011
00000000000000000100000001100011
00000000000000000101000001100011
00000000000000000110000001100011
00000000000000000111000001100011
00000000000000000000000000000011
00000000000000000001000000000011
00000000000000000010000000000011
00000000000000000100000000000011
00000000000000000101000000000011
00000000000000000000000000100011
00000000000000000001000000100011
00000000000000000010000000100011
00000000000000000000000000010011
00000000000000000010000000010011
00000000000000000011000000010011
00000000000000000100000000010011
00000000000000000110000000010011
00000000000000000111000000010011
00000000000000000001000000010011
00000000000000000101000000010011
01000000000000000101000000010011
00000000000000000000000000110011
01000000000000000000000000110011
00000000000000000001000000110011
00000000000000000010000000110011
00000000000000000011000000110011
00000000000000000100000000110011
00000000000000000101000000110011
01000000000000000101000000110011
00000000000000000110000000110011
00000000000000000111000000110011