Altera SOPC Builder Version 6.00 Build 202
Copyright (c) 1999-2006 Altera Corporation.  All rights reserved.


# 2006.08.30 12:30:23 (*) mk_custom_sdk starting
# 2006.08.30 12:30:23 (*) Reading project C:/DE1/DE1_SD_Card_Audio/system_0.ptf.

# 2006.08.30 12:30:24 (*) Finding all CPUs
# 2006.08.30 12:30:24 (*) Finding all available components
# 2006.08.30 12:30:24 (*) Reading C:/DE1/DE1_SD_Card_Audio/.sopc_builder/install.ptf

# 2006.08.30 12:30:24 (*) Found 59 components

# 2006.08.30 12:30:25 (*) Finding all peripherals

# 2006.08.30 12:30:25 (*) Finding software components

# 2006.08.30 12:30:27 (*) (Legacy SDK Generation Skipped)
# 2006.08.30 12:30:27 (*) (All TCL Script Generation Skipped)
# 2006.08.30 12:30:27 (*) (No Libraries Built)
# 2006.08.30 12:30:27 (*) (Contents Generation Skipped)
# 2006.08.30 12:30:27 (*) mk_custom_sdk finishing

# 2006.08.30 12:30:27 (*) Starting generation for system: system_0.

.
.
.
.
.
.
..
....
.
.
....
..

# 2006.08.30 12:30:29 (*) Running Generator Program for cpu_0

# 2006.08.30 12:30:32 (*)   Checking for plaintext license.
# 2006.08.30 12:30:32 (*)   Plaintext license not found.
# 2006.08.30 12:30:32 (*)   Checking for encrypted license (non-evaluation).
# 2006.08.30 12:30:33 (*)   Encrypted license found.  SOF will not be time-limited.
# 2006.08.30 12:30:50 (*)   Creating encrypted HDL

# 2006.08.30 12:30:55 (*) Running Generator Program for cfi_flash_0

# 2006.08.30 12:30:56 (*) Running Generator Program for sdram_0

# 2006.08.30 12:30:59 (*) Running Generator Program for epcs_controller

# 2006.08.30 12:31:01 (*) Running Generator Program for jtag_uart_0

# 2006.08.30 12:31:03 (*) Running Generator Program for uart_0

# 2006.08.30 12:31:05 (*) Running Generator Program for timer_0

# 2006.08.30 12:31:07 (*) Running Generator Program for timer_1

# 2006.08.30 12:31:09 (*) Running Generator Program for led_red

# 2006.08.30 12:31:11 (*) Running Generator Program for led_green

# 2006.08.30 12:31:12 (*) Running Generator Program for button_pio

# 2006.08.30 12:31:14 (*) Running Generator Program for switch_pio

# 2006.08.30 12:31:16 (*) Running Generator Program for SEG7_Display

# 2006.08.30 12:31:19 (*) Running Generator Program for sram_0

# 2006.08.30 12:31:23 (*) Running Generator Program for Audio_0

# 2006.08.30 12:31:26 (*) Running Generator Program for SD_DAT

# 2006.08.30 12:31:28 (*) Running Generator Program for SD_CMD

# 2006.08.30 12:31:30 (*) Running Generator Program for SD_CLK

# 2006.08.30 12:31:31 (*) Running Generator Program for clock_0

# 2006.08.30 12:31:34 (*) Running Generator Program for clock_1

.


# 2006.08.30 12:31:36 (*) Running Test Generator Program for sdram_0

# 2006.08.30 12:31:38 (*) Making arbitration and system (top) modules.

# 2006.08.30 12:32:10 (*) Generating Quartus symbol for top level: system_0

# 2006.08.30 12:32:10 (*) Generating Symbol C:/DE1/DE1_SD_Card_Audio/system_0.bsf

# 2006.08.30 12:32:10 (*) Creating command-line system-generation script: C:/DE1/DE1_SD_Card_Audio/system_0_generation_script

# 2006.08.30 12:32:10 (*) Running setup for HDL simulator: modelsim


# 2006.08.30 12:32:10 (*) Setting up Quartus with system_0_setup_quartus.tcl
c:/altera/quartus60/bin/quartus_sh -t system_0_setup_quartus.tcl


Info: *******************************************************************
Info: Running Quartus II Shell
    Info: Version 6.0 Build 202 06/20/2006 Service Pack 1 SJ Full Version
    Info: Copyright (C) 1991-2006 Altera Corporation. All rights reserved.
    Info: Your use of Altera Corporation's design tools, logic functions 
    Info: and other software and tools, and its AMPP partner logic 
    Info: functions, and any output files any of the foregoing 
    Info: (including device programming or simulation files), and any 
    Info: associated documentation or information are expressly subject 
    Info: to the terms and conditions of the Altera Program License 
    Info: Subscription Agreement, Altera MegaCore Function License 
    Info: Agreement, or other applicable license agreement, including, 
    Info: without limitation, that your use is for the sole purpose of 
    Info: programming logic devices manufactured by Altera and sold by 
    Info: Altera or its authorized distributors.  Ple
ase refer to the 
    Info: applicable agreement for further details.
    Info: Processing started: Wed Aug 30 12:32:10 2006
Info: Command: quartus_sh -t system_0_setup_quartus.tcl
Info: Evaluation of Tcl script system_0_setup_quartus.tcl was successful
Info: Quartus II Shell was successful. 0 errors, 0 warnings
    Info: Processing ended: Wed Aug 30 12:32:11 2006
    Info: Elapsed time: 00:00:01

# 2006.08.30 12:32:11 (*) Completed generation for system: system_0.
# 2006.08.30 12:32:11 (*) THE FOLLOWING SYSTEM ITEMS HAVE BEEN GENERATED:
  SOPC Builder database : C:/DE1/DE1_SD_Card_Audio/system_0.ptf 
  System HDL Model : C:/DE1/DE1_SD_Card_Audio/system_0.v 
  System Generation Script : C:/DE1/DE1_SD_Card_Audio/system_0_generation_script 

# 2006.08.30 12:32:11 (*) SUCCESS: SYSTEM GENERATION COMPLETED.


Press 'Exit' to exit.
